{
  "Auth": [
    {
      "transport": "php-fpm",
      "host": "127.0.0.1",
      "port": 9000,
      "file": "/app/services/Auth/public/index.php"
    },
    {
      "transport": "php-fpm",
      "host": "192.168.1.1",
      "port": 9001,
      "file": "/app/services/Auth/public/index.php"
    }
  ],
  "Test": [
    {
      "transport": "php-fpm",
      "host": "127.0.0.1",
      "port": 9000,
      "file": "/app/services/Auth/public/index.php"
    }
  ]
}